date,amount,is_predicted
2017-05-1,2501.7,real
2017-05-2,2504.52,real
2017-05-3,2507.44,real
2017-05-4,2510.41,real
2017-05-5,2513.39,real
2017-05-6,2516.27,real
2017-05-7,2519.11,real
2017-05-8,2522.09,real
2017-05-9,2524.98,real
2017-05-10,2527.91,real
2017-05-11,2530.79,real
2017-05-12,2533.65,real
2017-05-13,2536.67,real
2017-05-14,2539.71,real
2017-05-15,2542.68,real
2017-05-16,2545.47,real
2017-05-17,2548.45,real
2017-05-18,2551.43,real
2017-05-19,2554.34,real
2017-05-20,2557.29,real
2017-05-21,2559.945188937432,estimated
2017-05-22,2562.869546491408,estimated
2017-05-23,2565.7937352572158,estimated
2017-05-24,2568.7177544286446,estimated
2017-05-25,2571.641603198048,estimated
2017-05-26,2574.5652807563456,estimated
2017-05-27,2577.488786293019,estimated
2017-05-28,2580.4121189961174,estimated
2017-05-29,2583.3352780522523,estimated
2017-05-30,2586.258262646601,estimated
2017-05-31,2589.1810719629057,estimated
